텍스트 마이닝 프로젝트: 영화 ‘서울의 봄’ 리뷰 분석
…
library(tidyr)
frequency_wide <- frequency_sympathy %>%
  pivot_wider(names_from = sympathy,
              values_from = n,
              values_fill = list(n = 0))

frequency_wide <- frequency_wide %>%
  mutate(log_odds_ratio = log(((like    + 1) / (sum(like    + 1))) /
                                ((dislike + 1) / (sum(dislike + 1)))))

frequency_wide %>%
  arrange(-log_odds_ratio)

## # A tibble: 4,202 × 5
##    word  dislike  like neutral log_odds_ratio
##    <chr>   <int> <int>   <int>          <dbl>
##  1 검찰        0    74       0           3.18
##  2 반복        0    70       4           3.12
##  3 가슴        0    66       6           3.07
##  4 국민        1   120       2           2.96
##  5 독재        0    39       0           2.55
##  6 감사        0    36       5           2.47
##  7 모두        0    33       1           2.39
##  8 상황        0    30       0           2.29
##  9 우리        2    90       4           2.27
## 10 분노        1    59       1           2.26
## # ℹ 4,192 more rows
…
  count(category, word, sort = T) %>%       
  filter(str_count(word) >= 2)              

# tf-idf 구하기
tfidf_category <- frequency_category %>%
  bind_tf_idf(term = word,
              document = category,
              n = n) %>%
  arrange(-tf_idf)

tfidf_category

## # A tibble: 2,092 × 6
##    category word       n      tf   idf  tf_idf
##    <chr>    <chr>  <int>   <dbl> <dbl>   <dbl>
##  1 전두환   노태우    11 0.0121  1.10  0.0133 
##  2 배우     최고      42 0.0226  0.405 0.00917
##  3 쿠데타   민주화     5 0.00810 1.10  0.00890
##  4 쿠데타   사회       4 0.00648 1.10  0.00712
##  5 배우     올해      10 0.00538 1.10  0.00591
##  6 쿠데타   이시대     3 0.00486 1.10  0.00534
##  7 쿠데타   조직       3 0.00486 1.10  0.00534
##  8 전두환   관심       4 0.00440 1.10  0.00483
##  9 전두환   이명박     4 0.00440 1.10  0.00483
## 10 배우     김성수     8 0.00431 1.10  0.00473
## # ℹ 2,082 more rows
…
# 품사 태그 정리
separate_pos_movie <- pos_movie %>%
  separate_rows(word_pos, sep = "[+]") %>%                
  filter(str_detect(word_pos, "/n|/pv|/pa")) %>%            
  mutate(word = ifelse(str_detect(word_pos, "/pv|/pa"),     
                       str_replace(word_pos, "/.*$", "다"),  
                       str_remove(word_pos, "/.*$"))) %>%    
  filter(str_count(word) >= 2) %>%                          
  arrange(id)

separate_pos_movie %>%
  select(word)

## # A tibble: 19,598 × 1
##    word      
##    <chr>     
##  1 가슴아프다
##  2 우리      
##  3 역사      
##  4 돌다      
##  5 계기      
##  6 되다      
##  7 정우성    
##  8 배우님    
##  9 연기      
## 10 멋지다    
## # ℹ 19,588 more rows

library(widyr)
word_cors <- separate_pos_movie %>%
  add_count(word) %>%
  filter(n >= 20) %>%
  pairwise_cor(item = word, feature = id, sort = T)

word_cors

## # A tibble: 22,052 × 3
##    item1  item2  correlation
##    <chr>  <chr>        <dbl>
##  1 장군   장태완       0.591
##  2 장태완 장군         0.591
##  3 황정민 정우성       0.454
##  4 정우성 황정민       0.454
##  5 감독님 김성수       0.426
##  6 김성수 감독님       0.426
##  7 미래   잊다         0.414
##  8 잊다   미래         0.414
##  9 최고   올해         0.384
## 10 올해   최고         0.384
## # ℹ 22,042 more rows

# 관심 단어 추출
target <- c("전두환", "하나회", "쿠데타")

top_cors <- word_cors %>%
  filter(item1 %in% target) %>%
  group_by(item1) %>%
  slice_max(correlation, n = 10)

top_cors

## # A tibble: 30 × 3
## # Groups:   item1 [3]
##    item1  item2    correlation
##    <chr>  <chr>          <dbl>
##  1 전두환 노태우        0.246 
##  2 전두환 대통령        0.160 
##  3 전두환 정치          0.145 
##  4 전두환 하나회        0.144 
##  5 전두환 쿠데타        0.127 
##  6 전두환 민주주의      0.124 
##  7 전두환 대하다        0.121 
##  8 전두환 정권          0.113 
##  9 전두환 크다          0.102 
## 10 전두환 지금          0.0951
## # ℹ 20 more rows
…
# 바이그램으로 토큰화
line_comment <- separate_pos_movie %>%
  group_by(id) %>%
  summarise(sentence = paste(word, collapse = " "))

bigram_comment <- line_comment %>%
  unnest_tokens(input = sentence,
                output = bigram,
                token = "ngrams",
                n = 2)

bigram_comment

## # A tibble: 17,799 × 2
##       id bigram         
##    <int> <chr>          
##  1     1 가슴아프다 우리
##  2     1 우리 역사      
##  3     1 역사 돌다      
##  4     1 돌다 계기      
##  5     1 계기 되다      
##  6     1 되다 정우성    
##  7     1 정우성 배우님  
##  8     1 배우님 연기    
##  9     1 연기 멋지다    
## 10     1 멋지다 올해    
## # ℹ 17,789 more rows

# 바이어그램의 단어쌍 빈도 구하기
bigram_seprated <- bigram_comment %>%
  separate(bigram, c("word1", "word2"), sep = " ")

pair_bigram <- bigram_seprated %>%
  count(word1, word2, sort = T) %>%
  na.omit()

pair_bigram

## # A tibble: 15,273 × 3
##    word1  word2      n
##    <chr>  <chr>  <int>
##  1 최고   영화      38
##  2 영화   만들다    35
##  3 역사   잊다      34
##  4 배우들 연기      33
##  5 좋다   영화      30
##  6 영화   끝나다    29
##  7 역사   반복      24
##  8 올해   최고      23
##  9 황정민 연기      21
## 10 결말   알다      20
## # ℹ 15,263 more rows
…
# 바이그램 단어쌍 내용 살펴보기
line_movie <- line_comment %>%
  left_join(movie, by = "id")

line_movie %>%
  select(sentence)

## # A tibble: 1,921 × 1
##    sentence                                                                     
##    <chr>                                                                        
##  1 가슴아프다 우리 역사 돌다 계기 되다 정우성 배우님 연기 멋지다 올해 최고 영화 
##  2 역사 스포일러 쥐다 정도 긴박감 몰입감 넘치다 영화 연기 모이다 조연 스타급 나…
##  3 실제 영화 약하다 올해 최고 영화 북한소행 말하 일부 국회의원들 그들 표를던진 …
##  4 시간 어떻다 모를정도로 몰입 영화 다르다 끄다                                 
##  5 전두환 노태우 그러다 국민 아이러니하                                         
##  6 보는내내 두통 정우성 배우님 연기                                             
##  7 압도적 캐스팅 연기파 배우들 모이다 결말 알다 스토리 불구 긴장 박진감 넘치다  
##  8 이태 이순신 장태완 트다 이순신 장군 동상 지나다 역적 처벌하러 가다 비장감 영…
##  9 롯데시네마 아산터미널점 화장실 나오다 들다 삼키다 보다 자신 없다 화가나다 같…
## 10 이태신 바리케이트 넘다 전두광 처단하고 돌진하 영화적 장치 훌륭 그러다 이태신…
## # ℹ 1,911 more rows
…
# 중복, 고빈도 단어 제거
unique_noun_movie <- noun_movie %>%
  group_by(id) %>%                                   
  distinct(word, .keep_all = T) %>%
  ungroup() %>%
  add_count(word) %>%                                  
  filter(n <= 200) %>%
  select(id, word)

unique_noun_movie

## # A tibble: 13,437 × 2
##       id word    
##    <int> <chr>   
##  1     1 우리    
##  2     1 계기    
##  3     1 정우성  
##  4     1 배우    
##  5     1 연기    
##  6     1 올해    
##  7     1 최고    
##  8     2 스포일러
##  9     2 정도    
## 10     2 긴박감  
## # ℹ 13,427 more rows
…
# 불용어 제외 후 상위 10개 단어 추출
stopword_lda <- c("하면", "해서", "하게", "하지" )

top_term_topic <- term_topic %>%
  filter(!term %in% stopword_lda) %>%
  group_by(topic) %>%
  slice_max(beta, n = 10)

top_term_topic

## # A tibble: 93 × 3
## # Groups:   topic [9]
##    topic term       beta
##    <int> <chr>     <dbl>
##  1     1 대한민국 0.0349
##  2     1 검찰     0.0292
##  3     1 전두환   0.0287
##  4     1 생각     0.0240
##  5     1 쿠데타   0.0157
##  6     1 대통령   0.0141
##  7     1 무리     0.0120
##  8     1 오늘     0.0115
##  9     1 독재     0.0115
## 10     1 마음     0.0105
## # ℹ 83 more rows
…
5-4. 토빅별로 댓글 분류하기

doc_topic <- tidy(lda_model, matrix = "gamma")

doc_class <- doc_topic %>%
  group_by(document) %>%
  slice_max(gamma, n = 1)

doc_class

## # A tibble: 3,001 × 3
## # Groups:   document [1,749]
##    document topic gamma
##    <chr>    <int> <dbl>
##  1 1            6 0.150
##  2 10           6 0.152
##  3 100          2 0.178
##  4 1000         6 0.140
##  5 1001         2 0.143
##  6 1001         4 0.143
##  7 1003         1 0.126
##  8 1003         6 0.126
##  9 1004         2 0.137
## 10 1004         7 0.137
## # ℹ 2,991 more rows
…
# 최조 토픽별 막대 그래프
name_topic <- tibble(topic = 4:6,
                     name = c("1. 영화 내용 후기",
                              "2. 영화 주요 내용",
                              "3. 영화 연기 후기"))

top_term_topic_name <- top_term_topic %>%
  left_join(name_topic, by = "topic") %>%
  na.omit()

top_term_topic_name

## # A tibble: 32 × 4
## # Groups:   topic [3]
##    topic term      beta name             
##    <int> <chr>    <dbl> <chr>            
##  1     4 감독   0.0370  1. 영화 내용 후기
##  2     4 최고   0.0233  1. 영화 내용 후기
##  3     4 몰입감 0.0227  1. 영화 내용 후기
##  4     4 전두환 0.0169  1. 영화 내용 후기
##  5     4 결과   0.0138  1. 영화 내용 후기
##  6     4 연출   0.0127  1. 영화 내용 후기
##  7     4 내용   0.0117  1. 영화 내용 후기
##  8     4 정도   0.0101  1. 영화 내용 후기
##  9     4 지금   0.00955 1. 영화 내용 후기
## 10     4 작품   0.00955 1. 영화 내용 후기
## # ℹ 22 more rows
…
